<?xml version="1.0" encoding="UTF-8"?>
<svg id="svg2" width="1600" height="400" version="1.1" xmlns="http://www.w3.org/2000/svg" xmlns:cc="http://creativecommons.org/ns#" xmlns:dc="http://purl.org/dc/elements/1.1/" xmlns:rdf="http://www.w3.org/1999/02/22-rdf-syntax-ns#">
 <metadata id="metadata7">
  <rdf:RDF>
   <cc:Work rdf:about="">
    <dc:format>image/svg+xml</dc:format>
    <dc:type rdf:resource="http://purl.org/dc/dcmitype/StillImage"/>
    <dc:title/>
   </cc:Work>
  </rdf:RDF>
 </metadata>
 <g id="layer1" transform="translate(301.35 -348.61)">
  <rect id="rect4515" x="-301.35" y="348.61" width="1600" height="400" fill="#f4bac5"/>
  <g id="g875" transform="translate(124.41 -4.5385)">
   <path id="path4563-3-2-3" d="m447.26 616.08c31.648-38.345 28.083-94.676-8.1471-128.73s-92.673-34.115-128.98-0.15042c-36.309 33.965-40.006 90.287-8.4473 128.71l-24.071 25.54c24.503 27.814 59.773 43.762 96.841 43.787 37.068 0.0252 72.36-15.875 96.901-43.656z" opacity=".2"/>
   <path id="path4563-3-2" transform="translate(59.92 -52.75)" d="m387.04 665.92c31.648-38.345 28.083-94.676-8.1471-128.73s-92.673-34.115-128.98-0.15042c-36.309 33.965-40.006 90.287-8.4473 128.71l-24.071 25.54c24.503 27.814 59.773 43.762 96.841 43.787 37.068 0.0252 72.36-15.875 96.901-43.656z" fill="#ff3860"/>
   <path id="path3029-3" transform="translate(59.92 -52.75)" d="m314.85 660.07c-30.132 0-54.559-24.426-54.559-54.557 0-30.131 24.427-54.558 54.559-54.558 26.747 0 48.983 19.254 53.644 44.655h18.3c-5.0024-35.477-35.469-62.775-72.328-62.775-40.352 0-73.064 32.711-73.064 73.063s32.712 73.064 73.064 73.064c38.202 0 69.535-29.324 72.769-66.686h-18.259c-3.3325 26.937-26.285 47.794-54.125 47.794z" fill="#fff"/>
   <g id="text4593" transform="translate(-3.5318 -2.1035)" fill="#fdfdfd" stroke-width="1px" aria-label="CAPSULE">
    <path id="path4748" d="m318.86 650.6q-1.838-0.32164-3.5318-1.064-1.6938-0.74232-3.2465-1.9272-4.6331-3.5358-5.3692-8.1858-0.72666-4.6625 2.6574-9.0968 3.3936-4.4468 8.073-4.9639 4.689-0.52955 9.3221 3.0062 1.5526 1.1849 2.7157 2.6228 1.163 1.4379 1.9583 3.1259l-2.9291 3.8381q-0.63708-1.921-1.6066-3.3292-0.9695-1.4082-2.3979-2.4983-2.5588-1.9527-5.2757-1.4317t-4.9161 3.4028q-2.1897 2.8693-1.9752 5.6274t2.7732 4.7109q1.4284 1.0901 3.0425 1.6536 1.6141 0.56352 3.6351 0.67105z"/>
    <path id="path4750" d="m337.06 656.32-8.5336-3.9567-3.1344 3.2313-5.4859-2.5436 17.652-17.529 6.5065 3.0168-1.974 24.798-5.4859-2.5436zm-5.3521-7.2523 5.7977 2.6882 1.0124-9.761z"/>
    <path id="path4752" d="m350.21 641.2 9.7512 2.1453q4.3491 0.95685 6.2422 3.4052 1.9118 2.4364 1.1261 6.0073-0.78897 3.5861-3.5501 5.0105-2.7426 1.4124-7.0917 0.4556l-3.876-0.85277-1.7391 7.9047-5.8751-1.2926zm4.9384 5.5501-1.4 6.3634 3.2504 0.71512q1.7091 0.37602 2.8213-0.24322 1.1155-0.6345 1.4512-2.1605 0.33573-1.526-0.41383-2.5548-0.74957-1.0288-2.4587-1.4049z"/>
    <path id="path4754" d="m384.66 645.94-0.0404 4.9373q-1.9148-0.87506-3.7393-1.3275-1.8245-0.45243-3.4494-0.46572-2.1562-0.0176-3.1922 0.56766-1.0361 0.5853-1.0463 1.8353-8e-3 0.93747 0.67547 1.4743 0.69888 0.52136 2.5239 0.9113l2.5582 0.53656q3.8841 0.81304 5.5116 2.4202 1.6275 1.6071 1.6035 4.5445-0.0316 3.8592-2.3438 5.731-2.2965 1.8563-6.9995 1.8178-2.2187-0.0181-4.4495-0.45827-2.2308-0.44014-4.4584-1.2865l0.0415-5.078q2.2246 1.2057 4.2977 1.8321 2.0888 0.61085 4.0263 0.6267 1.9687 0.0161 3.0209-0.63157t1.0622-1.8664q9e-3 -1.0937-0.70492-1.6933-0.69825-0.59948-2.8194-1.0856l-2.3238-0.53465q-3.4938-0.77859-5.1053-2.4324-1.5959-1.6537-1.5732-4.4349 0.0285-3.4843 2.2938-5.3408 2.2653-1.8565 6.4839-1.822 1.9218 0.0157 3.9506 0.3292 2.0289 0.29785 4.196 0.89371z"/>
    <path id="path4756" d="m386.46 645.29 5.8818-1.2621 2.9339 13.673q0.60644 2.8263 1.7853 3.8518 1.1909 1.0069 3.2839 0.55784 2.1083-0.45237 2.7659-1.856 0.66967-1.4221 0.0632-4.2484l-2.9339-13.673 5.8817-1.2621 2.9339 13.673q1.0392 4.8429-0.88183 7.7321-1.921 2.8892-6.9014 3.9578-4.9651 1.0654-7.9023-0.78139-2.9372-1.8468-3.9763-6.6896z"/>
    <path id="path4758" d="m407.06 640.47 5.4922-2.4544 7.6627 17.147 9.6434-4.3095 1.8551 4.1512-15.136 6.7638z"/>
    <path id="path4760" d="m421.6 633.89 13.293-9.3196 2.6102 3.723-8.3672 5.8662 2.4936 3.5567 7.8683-5.5164 2.6102 3.723-7.8683 5.5164 3.0676 4.3755 8.6487-6.0635 2.6102 3.723-13.574 9.5169z"/>
   </g>
   <path id="path6" d="m374.26 458.67a94.107 94.107 0 0 0-94.107 94.107 94.107 94.107 0 0 0 0.0723 1.9695 94.107 94.107 0 0 1 94.035-92.716 94.107 94.107 0 0 1 94.036 92.137 94.107 94.107 0 0 0 0.0705-1.3914 94.107 94.107 0 0 0-94.107-94.107z" fill="#fff" opacity=".2" stroke-width="3.361"/>
  </g>
 </g>
</svg>
