<?xml version="1.0" encoding="UTF-8"?>
<!-- Created with Inkscape (http://www.inkscape.org/) -->
<svg id="svg2" width="128" height="128" version="1.1" xmlns="http://www.w3.org/2000/svg" xmlns:cc="http://creativecommons.org/ns#" xmlns:dc="http://purl.org/dc/elements/1.1/" xmlns:rdf="http://www.w3.org/1999/02/22-rdf-syntax-ns#">
 <metadata id="metadata7">
  <rdf:RDF>
   <cc:Work rdf:about="">
    <dc:format>image/svg+xml</dc:format>
    <dc:type rdf:resource="http://purl.org/dc/dcmitype/StillImage"/>
    <dc:title/>
   </cc:Work>
  </rdf:RDF>
 </metadata>
 <g id="layer1" transform="translate(-285 -550.05)">
  <g id="g868">
   <circle id="path4520" cx="348.96" cy="614.03" r="64" fill="#ffdd57" stroke-width=".66342"/>
   <path id="path861" d="m390.67 616.71-14.897-5e-3c-1.372 13.923-13.072 24.442-27.173 24.23-14.418-0.21602-25.992-11.57-26.484-25.981-0.49161-14.411 10.282-26.527 24.651-27.726 13.716-1.1435 25.847 8.0656 28.577 21.336l15.046-0.0336c-2.5603-19.244-18.055-33.862-36.701-35.981-2.6637-0.3027-5.3914-0.35023-8.1552-0.11979-22.111 1.8435-39.015 20.855-38.258 43.03 0.75646 22.174 18.916 39.991 41.101 40.323 22.185 0.33238 40.872-16.932 42.292-39.073" color="#000000" color-rendering="auto" dominant-baseline="auto" fill="#fff" image-rendering="auto" shape-rendering="auto" solid-color="#000000" style="font-feature-settings:normal;font-variant-alternates:normal;font-variant-caps:normal;font-variant-ligatures:normal;font-variant-numeric:normal;font-variant-position:normal;isolation:auto;mix-blend-mode:normal;shape-padding:0;text-decoration-color:#000000;text-decoration-line:none;text-decoration-style:solid;text-indent:0;text-orientation:mixed;text-transform:none;white-space:normal"/>
  </g>
 </g>
</svg>
